{  
  "images":[  
    {  
      "id":6370882,
      "name":"20 x64",
      "distribution":"Fedora",
      "slug":"fedora-20-x64",
      "public":true,
      "regions":[  
        "nyc1",
        "ams1",
        "sfo1",
        "nyc2",
        "ams2",
        "sgp1",
        "lon1",
        "nyc3",
        "ams3",
        "nyc3"
      ],
      "created_at":"2014-09-26T15:29:01Z",
      "min_disk_size":20
    },
    {  
      "id":6370885,
      "name":"20 x32",
      "distribution":"Fedora",
      "slug":"fedora-20-x32",
      "public":true,
      "regions":[  
        "nyc1",
        "ams1",
        "sfo1",
        "nyc2",
        "ams2",
        "sgp1",
        "lon1",
        "nyc3",
        "ams3",
        "nyc3"
      ],
      "created_at":"2014-09-26T15:29:18Z",
      "min_disk_size":20
    },
    {  
      "id":6370968,
      "name":"19 x64",
      "distribution":"Fedora",
      "slug":"fedora-19-x64",
      "public":true,
      "regions":[  
        "nyc1",
        "ams1",
        "sfo1",
        "nyc2",
        "ams2",
        "sgp1",
        "lon1",
        "nyc3",
        "ams3",
        "nyc3"
      ],
      "created_at":"2014-09-26T15:33:05Z",
      "min_disk_size":20
    },
    {  
      "id":6370969,
      "name":"19 x32",
      "distribution":"Fedora",
      "slug":"fedora-19-x32",
      "public":true,
      "regions":[  
        "nyc1",
        "ams1",
        "sfo1",
        "nyc2",
        "ams2",
        "sgp1",
        "lon1",
        "nyc3",
        "ams3",
        "nyc3"
      ],
      "created_at":"2014-09-26T15:33:39Z",
      "min_disk_size":20
    },
    {  
      "id":6372105,
      "name":"6.5 x32",
      "distribution":"CentOS",
      "slug":"centos-6-5-x32",
      "public":true,
      "regions":[  
        "nyc1",
        "ams1",
        "sfo1",
        "nyc2",
        "ams2",
        "sgp1",
        "lon1",
        "nyc3",
        "ams3",
        "nyc3"
      ],
      "created_at":"2014-09-26T16:28:33Z",
      "min_disk_size":20
    },
    {  
      "id":6372108,
      "name":"6.5 x64",
      "distribution":"CentOS",
      "slug":"centos-6-5-x64",
      "public":true,
      "regions":[  
        "nyc1",
        "ams1",
        "sfo1",
        "nyc2",
        "ams2",
        "sgp1",
        "lon1",
        "nyc3",
        "ams3",
        "nyc3"
      ],
      "created_at":"2014-09-26T16:28:43Z",
      "min_disk_size":20
    },
    {  
      "id":6372321,
      "name":"5.10 x64",
      "distribution":"CentOS",
      "slug":"centos-5-8-x64",
      "public":true,
      "regions":[  
        "nyc1",
        "ams1",
        "sfo1",
        "nyc2",
        "ams2",
        "sgp1",
        "lon1",
        "nyc3",
        "ams3",
        "nyc3"
      ],
      "created_at":"2014-09-26T16:40:18Z",
      "min_disk_size":20
    },
    {  
      "id":6372425,
      "name":"5.10 x32",
      "distribution":"CentOS",
      "slug":"centos-5-8-x32",
      "public":true,
      "regions":[  
        "nyc1",
        "ams1",
        "sfo1",
        "nyc2",
        "ams2",
        "sgp1",
        "lon1",
        "nyc3",
        "ams3",
        "nyc3"
      ],
      "created_at":"2014-09-26T16:45:29Z",
      "min_disk_size":20
    },
    {  
      "id":6372526,
      "name":"7.0 x64",
      "distribution":"Debian",
      "slug":"debian-7-0-x64",
      "public":true,
      "regions":[  
        "nyc1",
        "ams1",
        "sfo1",
        "nyc2",
        "ams2",
        "sgp1",
        "lon1",
        "nyc3",
        "ams3",
        "nyc3"
      ],
      "created_at":"2014-09-26T16:52:46Z",
      "min_disk_size":20
    },
    {  
      "id":6372528,
      "name":"7.0 x32",
      "distribution":"Debian",
      "slug":"debian-7-0-x32",
      "public":true,
      "regions":[  
        "nyc1",
        "ams1",
        "sfo1",
        "nyc2",
        "ams2",
        "sgp1",
        "lon1",
        "nyc3",
        "ams3",
        "nyc3"
      ],
      "created_at":"2014-09-26T16:53:06Z",
      "min_disk_size":20
    },
    {  
      "id":6372581,
      "name":"6.0 x64",
      "distribution":"Debian",
      "slug":"debian-6-0-x64",
      "public":true,
      "regions":[  
        "nyc1",
        "ams1",
        "sfo1",
        "nyc2",
        "ams2",
        "sgp1",
        "lon1",
        "nyc3",
        "ams3",
        "nyc3"
      ],
      "created_at":"2014-09-26T16:56:00Z",
      "min_disk_size":20
    },
    {  
      "id":6372662,
      "name":"6.0 x32",
      "distribution":"Debian",
      "slug":"debian-6-0-x32",
      "public":true,
      "regions":[  
        "nyc1",
        "ams1",
        "sfo1",
        "nyc2",
        "ams2",
        "sgp1",
        "lon1",
        "nyc3",
        "ams3",
        "nyc3"
      ],
      "created_at":"2014-09-26T17:00:21Z",
      "min_disk_size":20
    },
    {  
      "id":6374124,
      "name":"10.04 x64",
      "distribution":"Ubuntu",
      "slug":"ubuntu-10-04-x64",
      "public":true,
      "regions":[  
        "nyc1",
        "ams1",
        "sfo1",
        "nyc2",
        "ams2",
        "sgp1",
        "lon1",
        "nyc3",
        "ams3",
        "nyc3"
      ],
      "created_at":"2014-09-26T18:16:06Z",
      "min_disk_size":20
    },
    {  
      "id":6374125,
      "name":"10.04 x32",
      "distribution":"Ubuntu",
      "slug":"ubuntu-10-04-x32",
      "public":true,
      "regions":[  
        "nyc1",
        "ams1",
        "sfo1",
        "nyc2",
        "ams2",
        "sgp1",
        "lon1",
        "nyc3",
        "ams3",
        "nyc3"
      ],
      "created_at":"2014-09-26T18:16:15Z",
      "min_disk_size":20
    },
    {  
      "id":6374128,
      "name":"12.04.5 x64",
      "distribution":"Ubuntu",
      "slug":"ubuntu-12-04-x64",
      "public":true,
      "regions":[  
        "nyc1",
        "ams1",
        "sfo1",
        "nyc2",
        "ams2",
        "sgp1",
        "lon1",
        "nyc3",
        "ams3",
        "nyc3"
      ],
      "created_at":"2014-09-26T18:16:53Z",
      "min_disk_size":20
    },
    {  
      "id":6374130,
      "name":"12.04.5 x32",
      "distribution":"Ubuntu",
      "slug":"ubuntu-12-04-x32",
      "public":true,
      "regions":[  
        "nyc1",
        "ams1",
        "sfo1",
        "nyc2",
        "ams2",
        "sgp1",
        "lon1",
        "nyc3",
        "ams3",
        "nyc3"
      ],
      "created_at":"2014-09-26T18:17:23Z",
      "min_disk_size":20
    },
    {  
      "id":6886342,
      "name":"444.5.0 (stable)",
      "distribution":"CoreOS",
      "slug":"coreos-stable",
      "public":true,
      "regions":[  
        "sfo1",
        "nyc2",
        "ams2",
        "sgp1",
        "lon1",
        "nyc3",
        "ams3",
        "nyc3"
      ],
      "created_at":"2014-10-16T20:36:29Z",
      "min_disk_size":20
    },
    {  
      "id":6918735,
      "name":"14.04 x32",
      "distribution":"Ubuntu",
      "slug":"ubuntu-14-04-x32",
      "public":true,
      "regions":[  
        "nyc1",
        "ams1",
        "sfo1",
        "nyc2",
        "ams2",
        "sgp1",
        "lon1",
        "nyc3",
        "ams3",
        "nyc3"
      ],
      "created_at":"2014-10-17T20:13:41Z",
      "min_disk_size":20
    },
    {  
      "id":6918990,
      "name":"14.04 x64",
      "distribution":"Ubuntu",
      "slug":"ubuntu-14-04-x64",
      "public":true,
      "regions":[  
        "nyc1",
        "ams1",
        "sfo1",
        "nyc2",
        "ams2",
        "sgp1",
        "lon1",
        "nyc3",
        "ams3",
        "nyc3"
      ],
      "created_at":"2014-10-17T20:24:33Z",
      "min_disk_size":20
    },
    {  
      "id":7053293,
      "name":"7.0 x64",
      "distribution":"CentOS",
      "slug":"centos-7-0-x64",
      "public":true,
      "regions":[  
        "nyc1",
        "ams1",
        "sfo1",
        "nyc2",
        "ams2",
        "sgp1",
        "lon1",
        "nyc3",
        "ams3",
        "nyc3"
      ],
      "created_at":"2014-10-21T21:51:45Z",
      "min_disk_size":20
    }
  ],
  "links":{  
    "pages":{  
      "last":"https://api.digitalocean.com/v2/images?page=2&type=distribution",
      "next":"https://api.digitalocean.com/v2/images?page=2&type=distribution"
    }
  },
  "meta":{  
    "total":24
  }
}